module picbed

go 1.21

require (
	github.com/disintegration/imaging v1.6.2
	github.com/google/go-github/v60 v60.0.0
	golang.org/x/image v0.15.0
	golang.org/x/oauth2 v0.18.0
	gopkg.in/yaml.v3 v3.0.1
)

require (
	github.com/golang/protobuf v1.5.3 // indirect
	github.com/google/go-querystring v1.1.0 // indirect
	golang.org/x/net v0.22.0 // indirect
	golang.org/x/text v0.14.0 // indirect
	google.golang.org/appengine v1.6.7 // indirect
	google.golang.org/protobuf v1.31.0 // indirect
)
